module bitbucket.org/openbankingteam/conformance-suite

require (
	github.com/BurntSushi/toml v0.3.1 // indirect
	github.com/blang/semver v3.5.1+incompatible
	github.com/davecgh/go-spew v1.1.1
	github.com/dgrijalva/jwt-go v3.2.0+incompatible
	github.com/go-openapi/errors v0.17.2 // indirect
	github.com/go-openapi/loads v0.17.2
	github.com/go-openapi/runtime v0.0.0-20180920151709-4f900dc2ade9
	github.com/go-openapi/spec v0.17.2
	github.com/go-openapi/strfmt v0.17.2
	github.com/go-openapi/swag v0.17.2 // indirect
	github.com/go-openapi/validate v0.17.2
	github.com/go-ozzo/ozzo-validation v3.5.0+incompatible
	github.com/go-playground/locales v0.12.1 // indirect
	github.com/go-playground/universal-translator v0.16.0 // indirect
	github.com/golang/protobuf v1.3.1 // indirect
	github.com/google/go-cmp v0.2.0
	github.com/google/uuid v1.0.0
	github.com/gorilla/websocket v1.4.0
	github.com/hashicorp/go-version v1.2.0
	github.com/inconshreveable/mousetrap v1.0.0 // indirect
	github.com/labstack/echo v3.2.1+incompatible
	github.com/labstack/gommon v0.2.7 // indirect
	github.com/mattn/go-colorable v0.0.9 // indirect
	github.com/mattn/go-isatty v0.0.4 // indirect
	github.com/mgutz/ansi v0.0.0-20170206155736-9520e82c474b // indirect
	github.com/onsi/gomega v1.4.2 // indirect
	github.com/pkg/errors v0.8.1
	github.com/sirupsen/logrus v1.4.0
	github.com/spf13/cobra v0.0.3
	github.com/spf13/viper v1.3.1
	github.com/stretchr/testify v1.3.0
	github.com/tdewolff/minify/v2 v2.3.8
	github.com/tidwall/gjson v1.1.3
	github.com/tidwall/match v0.0.0-20171002075945-1731857f09b1 // indirect
	github.com/valyala/bytebufferpool v1.0.0 // indirect
	github.com/valyala/fasttemplate v0.0.0-20170224212429-dcecefd839c4 // indirect
	github.com/x-cray/logrus-prefixed-formatter v0.5.2
	golang.org/x/net v0.0.0-20190311183353-d8887717615a // indirect
	golang.org/x/sys v0.0.0-20190415145633-3fd5a3612ccd // indirect
	gopkg.in/go-playground/assert.v1 v1.2.1 // indirect
	gopkg.in/go-playground/validator.v9 v9.21.1
	gopkg.in/resty.v1 v1.10.3
)
