{
    "ais": {
      "consentedAccountId": "500000000000000000000001",
      "consentedAccountUri": "/accounts/500000000000000000000001",
  
      "consentedBusinessAccountId": "500000000000000000000008",
      "singleStatementId": "140000000000000000000004",
  
      "balancesUri": "/accounts/500000000000000000000004/balances",
      "beneficiariesUri": "/accounts/500000000000000000000004/beneficiaries",
      "directDebitsUri": "/accounts/500000000000000000000004/direct-debits",
      "productsUri": "/accounts/500000000000000000000004/products",
      "businessProductsUri": "/accounts/500000000000000000000008/products",
      "standingOrdersUri": "/accounts/500000000000000000000008/standing-orders",
      "transactionsUri": "/accounts/500000000000000000000004/transactions",
      "offersUri": "/accounts/500000000000000000000004/offers",
      "partyUri": "/accounts/500000000000000000000004/party",
      "businessPartyUri": "/accounts/500000000000000000000008/party",
      "scheduledPaymentsUri": "/accounts/500000000000000000000004/scheduled-payments",
      "statementsUri": "/accounts/500000000000000000000004/statements",
      "singleStatementUri": "/accounts/500000000000000000000004/statements/140000000000000000000004",
      "statementFileUri": "/accounts/500000000000000000000004/statements/140000000000000000000004/file",
      "statementTransactionsUri": "/accounts/500000000000000000000004/statements/140000000000000000000004/transactions",
  
      "nonExistentAccountId": "foobar",
      "nonExistentAccountUri": "/accounts/foobar",
  
      "unconsentedAccountId": "500000000000000000000001",
      "unconsentedSingleStatementId": "140000000000000000000006",
      "unconsentedAccountUri": "/accounts/500000000000000000000001",
      "unconsentedBalancesUri": "/accounts/500000000000000000000001/balances",
      "unconsentedBeneficiariesUri": "/accounts/500000000000000000000001/beneficiaries",
      "unconsentedDirectDebitsUri": "/accounts/500000000000000000000001/direct-debits",
      "unconsentedProductsUri": "/accounts/500000000000000000000001/products",
      "unconsentedStandingOrdersUri": "/accounts/500000000000000000000001/standing-orders",
      "unconsentedTransactionsUri": "/accounts/500000000000000000000001/transactions",
      "unconsentedOffersUri": "/accounts/500000000000000000000001/offers",
      "unconsentedPartyUri": "/accounts/500000000000000000000001/party",
      "unconsentedScheduledPaymentsUri": "/accounts/500000000000000000000001/scheduled-payments",
      "unconsentedStatementsUri": "/accounts/500000000000000000000006/statements",
      "unconsentedSingleStatementUri": "/accounts/500000000000000000000001/statements/140000000000000000000001",
      "unconsentedStatementFileUri": "/accounts/500000000000000000000001/statements/140000000000000000000001/file",
      "unconsentedStatementTransactionsUri": "/accounts/500000000000000000000001/statements/140000000000000000000001/transactions",
      "unconsentedAccountStatementUri": "/accounts/500000000000000000000001/statements/140000000000000000000001",
      "nonExistentStatementTransactionsUri":  "/accounts/500000000000000000000006/statements/foobar/transactions",
  
      "otherPSUsAccountId": "500000000000000000000001",
      "otherPSUsSingleStatementId": "140000000000000000000001",
  
      "otherPSUsAccountUri": "/accounts/500000000000000000000001",
      "otherPSUsBalancesUri": "/accounts/500000000000000000000001/balances",
      "otherPSUsBeneficiariesUri": "/accounts/500000000000000000000001/beneficiaries",
      "otherPSUsDirectDebitsUri": "/accounts/500000000000000000000001/direct-debits",
      "otherPSUsProductsUri": "/accounts/500000000000000000000001/products",
      "otherPSUsStandingOrdersUri": "/accounts/500000000000000000000001/standing-orders",
      "otherPSUsTransactionsUri": "/accounts/500000000000000000000001/transactions",
      "otherPSUsOffersUri": "/accounts/500000000000000000000001/offers",
      "otherPSUsPartyUri": "/accounts/500000000000000000000001/party",
      "otherPSUsScheduledPaymentsUri": "/accounts/500000000000000000000001/scheduled-payments",
      "otherPSUsStatementsUri": "/accounts/500000000000000000000001/statements",
      "otherPSUsSingleStatementUri": "/accounts/500000000000000000000001/statements/140000000000000000000001",
      "otherPSUsStatementFileUri": "/accounts/500000000000000000000001/statements/140000000000000000000001/file",
      "otherPSUsStatementTransactionsUri": "/accounts/500000000000000000000004/statements/140000000000000000000006/transactions",
  
      "otherAccountStatementId": "140000000000000000000005",
      "otherAccountStatementUri": "/accounts/500000000000000000000004/statements/140000000000000000000005",
      "otherAccountStatementFileUri": "/accounts/500000000000000000000004/statements/140000000000000000000005/file"
    },
    "ais.ConsentAccountIds": [
        "500000000000000000000003",
        "500000000000000000000004",
        "500000000000000000000005",
        "500000000000000000000006",
        "500000000000000000000008"
    ],
  
    "pis": {
      "Currency": "GBP",
      "DebtorAccount": {
        "SchemeName": "IBAN",
        "Identification": "GB29PAPA20000319470103",
        "Name": "Dr Foo",
        "SecondaryIdentification": "200 004"
      },
      "MADebtorAccount": {
        "SchemeName" : "UK.OBIE.IBAN",
        "Identification" : "GB29PAPA20000390210004",
        "Name" : "pectre Charitable Funds"
      }
    }
  }
  